^C:\OPENGL\SPARTANJ-SOIL2-55ABD15F40C7\SRC\SOIL2\ETC1_UTILS.C|C:\OPENGL\SPARTANJ-SOIL2-55ABD15F40C7\SRC\SOIL2\IMAGE_DXT.C|C:\OPENGL\SPARTANJ-SOIL2-55ABD15F40C7\SRC\SOIL2\IMAGE_HELPER.C|C:\OPENGL\SPARTANJ-SOIL2-55ABD15F40C7\SRC\SOIL2\SOIL2.C
C:\OPENGL\SPARTANJ-SOIL2-55ABD15F40C7\LIB\WINDOWS\SOIL2-DEBUG.PDB
C:\OPENGL\SPARTANJ-SOIL2-55ABD15F40C7\LIB\WINDOWS\SOIL2-DEBUG.IDB
C:\OPENGL\SPARTANJ-SOIL2-55ABD15F40C7\OBJ\WINDOWS\DEBUG\SOIL2-STATIC-LIB\ETC1_UTILS.OBJ
C:\OPENGL\SPARTANJ-SOIL2-55ABD15F40C7\OBJ\WINDOWS\DEBUG\SOIL2-STATIC-LIB\IMAGE_DXT.OBJ
C:\OPENGL\SPARTANJ-SOIL2-55ABD15F40C7\OBJ\WINDOWS\DEBUG\SOIL2-STATIC-LIB\IMAGE_HELPER.OBJ
C:\OPENGL\SPARTANJ-SOIL2-55ABD15F40C7\OBJ\WINDOWS\DEBUG\SOIL2-STATIC-LIB\SOIL2.OBJ
^C:\OPENGL\SPARTANJ-SOIL2-55ABD15F40C7\SRC\SOIL2\ETC1_UTILS.C
C:\OPENGL\SPARTANJ-SOIL2-55ABD15F40C7\LIB\WINDOWS\SOIL2-DEBUG.PDB
^C:\OPENGL\SPARTANJ-SOIL2-55ABD15F40C7\SRC\SOIL2\IMAGE_DXT.C
C:\OPENGL\SPARTANJ-SOIL2-55ABD15F40C7\LIB\WINDOWS\SOIL2-DEBUG.PDB
^C:\OPENGL\SPARTANJ-SOIL2-55ABD15F40C7\SRC\SOIL2\IMAGE_HELPER.C
C:\OPENGL\SPARTANJ-SOIL2-55ABD15F40C7\LIB\WINDOWS\SOIL2-DEBUG.PDB
^C:\OPENGL\SPARTANJ-SOIL2-55ABD15F40C7\SRC\SOIL2\SOIL2.C
C:\OPENGL\SPARTANJ-SOIL2-55ABD15F40C7\LIB\WINDOWS\SOIL2-DEBUG.PDB
