^C:\OPENGL\SPARTANJ-SOIL2-55ABD15F40C7\OBJ\WINDOWS\DEBUG\SOIL2-STATIC-LIB\ETC1_UTILS.OBJ|C:\OPENGL\SPARTANJ-SOIL2-55ABD15F40C7\OBJ\WINDOWS\DEBUG\SOIL2-STATIC-LIB\IMAGE_DXT.OBJ|C:\OPENGL\SPARTANJ-SOIL2-55ABD15F40C7\OBJ\WINDOWS\DEBUG\SOIL2-STATIC-LIB\IMAGE_HELPER.OBJ|C:\OPENGL\SPARTANJ-SOIL2-55ABD15F40C7\OBJ\WINDOWS\DEBUG\SOIL2-STATIC-LIB\SOIL2.OBJ
C:\OPENGL\SPARTANJ-SOIL2-55ABD15F40C7\OBJ\WINDOWS\DEBUG\SOIL2-STATIC-LIB\ETC1_UTILS.OBJ
C:\WINDOWS\SYSTEM32\TZRES.DLL
C:\OPENGL\SPARTANJ-SOIL2-55ABD15F40C7\OBJ\WINDOWS\DEBUG\SOIL2-STATIC-LIB\IMAGE_DXT.OBJ
C:\OPENGL\SPARTANJ-SOIL2-55ABD15F40C7\OBJ\WINDOWS\DEBUG\SOIL2-STATIC-LIB\IMAGE_HELPER.OBJ
C:\OPENGL\SPARTANJ-SOIL2-55ABD15F40C7\OBJ\WINDOWS\DEBUG\SOIL2-STATIC-LIB\SOIL2.OBJ
C:\WINDOWS\GLOBALIZATION\SORTING\SORTDEFAULT.NLS
